…
``` r
# the column salary has to be declared as type double
nbadata$Salary <-as.double(nbadata$Salary)
class(nbadata$Salary)
```

    ## [1] "numeric"

``` r
# the rest of the 19 columns have to be declared as type double
nbadata[,6:24] <- sapply(nbadata[,6:24], as.double)
nbadata
```

    ## # A tibble: 441 x 24
    ##               Player  Team Position Experience   Salary  Rank   Age    GP
    ##                <chr> <chr>   <fctr>      <chr>    <dbl> <dbl> <dbl> <dbl>
    ##  1        Al Horford   BOS        C          9 26540100     4    30    68
    ##  2      Amir Johnson   BOS       PF         11 12000000     6    29    80
    ##  3     Avery Bradley   BOS       SG          6  8269663     5    26    55
    ##  4 Demetrius Jackson   BOS       PG          R  1450000    15    22     5
    ##  5      Gerald Green   BOS       SF          9  1410598    11    31    47
    ##  6     Isaiah Thomas   BOS       PG          5  6587132     1    27    76
    ##  7       Jae Crowder   BOS       SF          4  6286408     3    26    72
    ##  8       James Young   BOS       SG          2  1825200    13    21    29
    ##  9      Jaylen Brown   BOS       SF          R  4743000     8    20    78
    ## 10     Jonas Jerebko   BOS       PF          6  5000000    10    29    78
    ## # ... with 431 more rows, and 16 more variables: GS <dbl>, MIN <dbl>,
    ## #   FGM <dbl>, FGA <dbl>, Points3 <dbl>, Points3_atts <dbl>,
    ## #   Points2 <dbl>, Points2_atts <dbl>, FTM <dbl>, FTA <dbl>, OREB <dbl>,
    ## #   DREB <dbl>, AST <dbl>, STL <dbl>, BLK <dbl>, TO <dbl>
…
    ## [1] 0.655624

``` r
# the more efficiency, the more salary
```

``` r
# Taking into account the column MPG (minutes per game) select those players that have an MPG value of 20 or more minutes per game
  nbadata%>%
   filter(MPG > 20) %>%
    select(MPG, Player)
```

    ## # A tibble: 231 x 2
    ##         MPG         Player
    ##       <dbl>          <chr>
    ##  1 32.25000     Al Horford
    ##  2 20.10000   Amir Johnson
    ##  3 33.36364  Avery Bradley
    ##  4 33.80263  Isaiah Thomas
    ##  5 32.43056    Jae Crowder
    ##  6 20.50667   Kelly Olynyk
    ##  7 30.36709   Marcus Smart
    ##  8 20.25000 Deron Williams
    ##  9 24.00000    Edy Tavares
    ## 10 25.48684  Iman Shumpert
    ## # ... with 221 more rows

``` r
# Create a data frame players2 with these players.
    player2 <- nbadata %>% filter(MPG > 20) %>% select(MPG, Player,EFF,Salary)
    player2
```

    ## # A tibble: 231 x 4
    ##         MPG         Player       EFF   Salary
    ##       <dbl>          <chr>     <dbl>    <dbl>
    ##  1 32.25000     Al Horford 19.514706 26540100
    ##  2 20.10000   Amir Johnson 10.900000 12000000
    ##  3 33.36364  Avery Bradley 16.345455  8269663
    ##  4 33.80263  Isaiah Thomas 24.684211  6587132
    ##  5 32.43056    Jae Crowder 16.069444  6286408
    ##  6 20.50667   Kelly Olynyk 11.746667  3094014
    ##  7 30.36709   Marcus Smart 12.379747  3578880
    ##  8 20.25000 Deron Williams  8.291667   259626
    ##  9 24.00000    Edy Tavares 19.000000     5145
    ## 10 25.48684  Iman Shumpert  7.881579  9700000
    ## # ... with 221 more rows
…
